{
    "additionalProperties": false,
    "title": "CustomerResponse",
    "type": "object",
    "properties": {
        "id": {
            "type": "number"
        },
        "names": {
            "type": "string"
        },
        "lastnames": {
            "type": "string"
        },
        "documentType": {
            "type": "string"
        },
        "documentNumber": {
            "type": "string"
        },
        "email": {
            "type": "string"
        },
        "status": {
            "type": "number"
        },
        "createdAt": {
            "type": "number"
        },
        "updatedAt": {
            "type": "number"
        },
        "idEmployee": {
            "type": "number"
        }
    }
}