{
    "additionalProperties": false,
    "title": "OptionsResponse",
    "type": "object",
    "properties": {
        "options": {
            "type": "array",
            "items": {
                "type": "string"
            }
        }
    }
}