{
    "additionalProperties": false,
    "title": "PayloadResponse",
    "type": "object",
    "properties": {
        "sub": {
            "type": "number"
        },
        "employee": {
            "$ref": "./src/schemas/employee_schema.json"
        }
    }
}